LinkedIn NLP Analysis
…
tidy(hashtag_model) # additional hash tags not statistically significant 

## # A tibble: 1 x 5
##   term     estimate std.error statistic p.value
##   <chr>       <dbl>     <dbl>     <dbl>   <dbl>
## 1 Hashtags -0.00154    0.0613   -0.0251   0.981

6. Predictive Modeling

predict_engage <- lm(User_Engagement ~ Month + Weekday + Total_Sentiments + Positive_Sentiments + Hashtags, data = linkedin_posts)

tidy(predict_engage)

## # A tibble: 21 x 5
##    term        estimate std.error statistic  p.value
##    <chr>          <dbl>     <dbl>     <dbl>    <dbl>
##  1 (Intercept)   1454.       195.     7.44  1.86e-13
##  2 Month02         65.5      221.     0.296 7.67e- 1
##  3 Month03        262.       216.     1.21  2.26e- 1
##  4 Month04       -313.       208.    -1.51  1.33e- 1
##  5 Month05       -238.       211.    -1.13  2.59e- 1
##  6 Month06       -298.       224.    -1.33  1.85e- 1
##  7 Month07        281.       246.     1.15  2.52e- 1
##  8 Month08        209.       245.     0.852 3.94e- 1
##  9 Month09       -342.       224.    -1.53  1.27e- 1
## 10 Month10       -154.       225.    -0.686 4.93e- 1
## #  with 11 more rows
…
